<?xml version="1.0" encoding="UTF-8"?>
<!DOCTYPE X3D PUBLIC "ISO//Web3D//DTD X3D 3.0//EN" "http://www.web3d.org/specifications/x3d-3.0.dtd">
<X3D version="3.0" profile="Immersive" xmlns:xsd="http://www.w3.org/2001/XMLSchema-instance" xsd:noNamespaceSchemaLocation="http://www.web3d.org/specifications/x3d-3.0.xsd">
	<head>
		<meta name="filename" content="WhiteAndBeautiful.x3d" />
		<meta name="generator" content="Blender 2.76 (sub 0)" />
	</head>
	<Scene>
		<NavigationInfo headlight="false"
		                visibilityLimit="0.0"
		                type='"EXAMINE", "ANY"'
		                avatarSize="0.25, 1.75, 0.75"
		                />
		<Background DEF="WO_World"
		            groundColor="0.051 0.051 0.051"
		            skyColor="0.051 0.051 0.051"
		            />
		<Transform DEF="Point_TRANSFORM"
		           translation="0.002692 2.795560 -0.001432"
		           scale="1.000000 1.000000 1.000000"
		           rotation="0.000000 0.707107 0.707107 3.141593"
		           >
			<PointLight DEF="LA_Point"
			            ambientIntensity="0.0000"
			            color="1.0000 1.0000 1.0000"
			            intensity="0.5714"
			            radius="25.0000" 
			            location="0.0000 0.0000 0.0000"
			            />
		</Transform>
		<Transform DEF="Plane_TRANSFORM"
		           translation="0.002692 -0.000853 -0.001432"
		           scale="1.693974 1.000000 1.000000"
		           rotation="0.000000 0.707107 0.707107 3.141593"
		           >
			<Transform DEF="Plane_ifs_TRANSFORM"
			           translation="0.000000 0.000000 0.000000"
			           scale="1.000000 1.000000 1.000000"
			           rotation="1.000000 0.000000 0.000000 0.000000"
			           >
				<Group DEF="group_ME_Plane_001">
					<Shape>
						<Appearance>
							<ImageTexture DEF="IM_WhiteAndBeautifulWeb_png"
							              url='"textures/WhiteAndBeautifulWeb.png" "WhiteAndBeautifulWeb.png" "C:/Users/Tr0Ian/Dropbox/Blender/Models/SpiderWeb/../../../../Desktop/WhiteAndBeautifulWeb.png"'
							              />
							<TextureTransform 
							                  translation="0.000000 0.000000"
							                  scale="1.000000 1.000000"
							                  rotation="0.000000"
							                  />
							<Material DEF="MA_Material_002"
							          diffuseColor="0.800 0.800 0.800"
							          specularColor="0.001 0.001 0.001"
							          emissiveColor="0.000 0.000 0.000"
							          ambientIntensity="0.333"
							          shininess="0.098"
							          transparency="1.0"
							          />
						</Appearance>
						<IndexedFaceSet solid="true"
						                texCoordIndex="0 1 2 3 -1 "
						                coordIndex="0 1 3 2 -1 "
						                >
							<Coordinate DEF="coords_ME_Plane_001"
							            point="-1.000000 -1.000000 0.000000 1.000000 -1.000000 0.000000 -1.000000 1.000000 0.000000 1.000000 1.000000 0.000000 "
							            />
							<TextureCoordinate point="0.0000 0.0000 1.0000 0.0000 1.0000 1.0000 0.0000 1.0000 " />
						</IndexedFaceSet>
					</Shape>
				</Group>
			</Transform>
		</Transform>
	</Scene>
</X3D>