<?xml version="1.0" encoding="UTF-8"?>
<!DOCTYPE X3D PUBLIC "ISO//Web3D//DTD X3D 3.0//EN" "http://www.web3d.org/specifications/x3d-3.0.dtd">
<X3D version="3.0" profile="Immersive" xmlns:xsd="http://www.w3.org/2001/XMLSchema-instance" xsd:noNamespaceSchemaLocation="http://www.web3d.org/specifications/x3d-3.0.xsd">
	<head>
		<meta name="filename" content="malahit.x3d" />
		<meta name="generator" content="Blender 2.76 (sub 0)" />
	</head>
	<Scene>
		<NavigationInfo headlight="false"
		                visibilityLimit="0.0"
		                type='"EXAMINE", "ANY"'
		                avatarSize="0.25, 1.75, 0.75"
		                />
		<Background DEF="WO_World_001"
		            groundColor="0.050 0.050 0.050"
		            skyColor="0.050 0.050 0.050"
		            />
		<Transform DEF="Plane_TRANSFORM"
		           translation="0.000000 0.000000 1.218138"
		           scale="1.000000 1.000000 1.000000"
		           rotation="0.000000 0.707107 0.707107 3.141593"
		           >
			<Transform DEF="Plane_ifs_TRANSFORM"
			           translation="0.000000 0.000000 0.000000"
			           scale="1.000000 1.000000 1.000000"
			           rotation="1.000000 0.000000 0.000000 0.000000"
			           >
				<Group DEF="group_ME_Plane">
					<Shape>
						<Appearance>
							<Material DEF="MA_Material_001"
							          diffuseColor="1.000 1.000 1.000"
							          specularColor="0.001 0.001 0.001"
							          emissiveColor="0.000 0.000 0.000"
							          ambientIntensity="0.333"
							          shininess="0.098"
							          transparency="0.32499998807907104"
							          />
						</Appearance>
						<IndexedFaceSet solid="true"
						                coordIndex="2 3 10 9 -1 1 0 7 8 -1 2 6 13 9 -1 4 5 12 11 -1 3 1 8 10 -1 0 4 11 7 -1 5 6 13 12 -1 12 13 20 19 -1 9 10 17 16 -1 8 7 14 15 -1 9 13 20 16 -1 11 12 19 18 -1 10 8 15 17 -1 7 11 18 14 -1 18 19 26 25 -1 17 15 22 24 -1 14 18 25 21 -1 19 20 27 26 -1 16 17 24 23 -1 15 14 21 22 -1 16 20 27 23 -1 22 21 25 -1 25 26 27 -1 27 23 24 -1 24 22 25 -1 25 27 24 -1 4 0 1 -1 1 3 2 -1 2 6 5 -1 5 4 1 -1 1 2 5 -1 "
						                >
							<Coordinate DEF="coords_ME_Plane"
							            point="3.094486 -2.044347 0.949472 2.886453 0.313362 0.949472 -1.066177 1.099265 0.949472 0.690548 1.584676 0.949472 0.066448 -3.546809 0.949472 -2.822901 -1.766970 0.949472 -2.360605 0.128443 0.949472 2.918272 -1.960472 1.139367 2.722358 0.259882 1.139367 -1.000000 1.000000 1.139367 0.654381 1.457132 1.139367 0.066641 -3.375404 1.139367 -2.654382 -1.699254 1.139367 -2.219018 0.085736 1.139367 1.837032 -1.445821 1.519155 1.715484 -0.068267 1.519155 -0.593945 0.390918 1.519155 0.432468 0.674532 1.519155 0.067821 -2.323674 1.519155 -1.620358 -1.283756 1.519155 -1.350249 -0.176311 1.519155 1.837032 -1.445821 1.519155 1.715484 -0.068267 1.519155 -0.593945 0.390918 1.519155 0.432468 0.674532 1.519155 0.067821 -2.323674 1.519155 -1.620358 -1.283756 1.519155 -1.350249 -0.176311 1.519155 "
							            />
						</IndexedFaceSet>
					</Shape>
				</Group>
			</Transform>
			<Transform DEF="Point_TRANSFORM"
			           translation="0.000000 -1.218138 1.295459"
			           scale="1.000000 1.000000 1.000000"
			           rotation="1.000000 0.000000 0.000000 0.000000"
			           >
				<PointLight DEF="LA_Point"
				            ambientIntensity="0.0000"
				            color="0.0935 0.7829 1.0000"
				            intensity="0.5714"
				            radius="13.5700" 
				            location="0.0000 0.0000 0.0000"
				            />
			</Transform>
		</Transform>
	</Scene>
</X3D>